Division,WeightClassKg,Place,Name,Team,BodyweightKg,Best3SquatKg,Best3BenchKg,Best3DeadliftKg,TotalKg,Equipment,Event,Sex,BirthDate
Boys,55.79,1,Dreightan Patt,Honey Grove,54.88,117.93,61.23,129.27,308.44,Single-ply,SBD,M,
Boys,59.87,1,Luke Elrod,Paris North Lamar,58.97,165.56,97.52,195.04,458.13,Single-ply,SBD,M,
Boys,59.87,2,Justin Baque,Tom Bean,58.51,136.08,68.04,142.88,347,Single-ply,SBD,M,
Boys,59.87,3,Ben Howell,Lone Oak,58.97,117.93,65.77,147.42,331.12,Single-ply,SBD,M,
Boys,67.13,1,Cameron Widner,Paris North Lamar,67.13,136.08,83.91,149.69,369.68,Single-ply,SBD,M,
Boys,67.13,2,Jack Weger,Honey Grove,67.13,142.88,70.31,122.47,335.66,Single-ply,SBD,M,
Boys,74.84,1,Kaden Orr,Mount Vernon,74.39,190.51,147.42,206.38,544.31,Single-ply,SBD,M,
Boys,74.84,2,Andrew Huddleston,Mount Vernon,74.39,188.24,136.08,206.38,530.7,Single-ply,SBD,M,
Boys,74.84,3,Ethan Fort,Lone Oak,71.21,210.92,102.06,201.85,514.83,Single-ply,SBD,M,
Boys,74.84,4,Malaki Tillery,Paris North Lamar,73.03,174.63,102.06,183.7,460.4,Single-ply,SBD,M,
Boys,74.84,5,Brayden McCormack,Paris North Lamar,71.21,170.1,92.99,170.1,433.18,Single-ply,SBD,M,
Boys,74.84,6,Deon Morris,Honey Grove,72.57,140.61,97.52,158.76,396.89,Single-ply,SBD,M,
Boys,74.84,7,Jack Turner,Lone Oak,71.67,147.42,97.52,136.08,381.02,Single-ply,SBD,M,
Boys,74.84,8,Kendal Wolfe,Honey Grove,72.12,133.81,74.84,142.88,351.53,Single-ply,SBD,M,
Boys,74.84,9,Brady Banker,Honey Grove,74.84,122.47,68.04,136.08,326.59,Single-ply,SBD,M,
Boys,74.84,DQ,Zach Niles,Lone Oak,72.12,136.08,,,,Single-ply,SBD,M,
Boys,82.1,1,Gage Mauch,Lone Oak,82.1,269.89,151.95,215.46,637.3,Single-ply,SBD,M,
Boys,82.1,2,Makenzie McGill,Mount Vernon,82.1,224.53,124.74,219.99,569.26,Single-ply,SBD,M,
Boys,82.1,3,Andrew Cox,Mount Vernon,82.1,154.22,113.4,183.7,451.32,Single-ply,SBD,M,
Boys,82.1,4,Anthony Perez,Lone Oak,75.66,165.56,104.33,170.1,439.98,Single-ply,SBD,M,
Boys,82.1,5,Jesse Troy,Paris North Lamar,81.19,147.42,102.06,163.29,412.77,Single-ply,SBD,M,
Boys,82.1,6,Cody Stevens,Paris North Lamar,76.2,142.88,90.72,142.88,376.48,Single-ply,SBD,M,
Boys,82.1,7,Sawyer Deal,Mount Vernon,79.38,138.35,83.91,151.95,374.21,Single-ply,SBD,M,
Boys,82.1,8,Antonio Torres,Honey Grove,75.75,106.59,61.23,129.27,297.1,Single-ply,SBD,M,
Boys,82.1,DQ,Kenneth Posey,Paris North Lamar,78.02,183.7,108.86,,,Single-ply,SBD,M,
Boys,89.81,1,Jd Songer,Lone Oak,84.37,204.12,90.72,183.7,478.54,Single-ply,SBD,M,
Boys,89.81,2,Juan Ramos,Mount Vernon,82.55,174.63,117.93,183.7,476.27,Single-ply,SBD,M,
Boys,89.81,3,Remington Brown,Paris North Lamar,88,151.95,99.79,170.1,421.84,Single-ply,SBD,M,
Boys,89.81,4,Leeland Wedeking,Lone Oak,84.37,149.69,90.72,147.42,387.82,Single-ply,SBD,M,
Boys,89.81,5,Clayton Wallace,Lone Oak,86.18,154.22,90.72,142.88,387.82,Single-ply,SBD,M,
Boys,89.81,6,Triston Wilson,Lone Oak,87.09,142.88,88.45,151.95,383.29,Single-ply,SBD,M,
Boys,89.81,DQ,Willie Foster,Lone Oak,88,,,,,Single-ply,SBD,M,
Boys,99.79,1,Peyton Rainbolt,Lone Oak,99.79,204.12,124.74,172.37,501.22,Single-ply,SBD,M,
Boys,99.79,2,Maverick Brown,Paris North Lamar,92.99,172.37,108.86,174.63,455.86,Single-ply,SBD,M,
Boys,99.79,3,Corbin Smith,Lone Oak,93.89,151.95,95.25,165.56,412.77,Single-ply,SBD,M,
Boys,99.79,4,Camden Norris,Lone Oak,99.79,170.1,88.45,142.88,401.43,Single-ply,SBD,M,
Boys,109.77,1,Corbin Brantley,Mount Vernon,106.59,233.6,154.22,206.38,594.21,Single-ply,SBD,M,
Boys,109.77,2,Caiden Moore,Mount Vernon,101.6,215.46,158.76,192.78,566.99,Single-ply,SBD,M,
Boys,109.77,3,Atticus Finley,Paris North Lamar,107.95,226.8,113.4,204.12,544.31,Single-ply,SBD,M,
Boys,109.77,4,Ben Risner,Mount Vernon,107.5,204.12,138.35,190.51,532.97,Single-ply,SBD,M,
Boys,109.77,5,Cason McBride,Lone Oak,103.42,195.04,106.59,181.44,483.08,Single-ply,SBD,M,
Boys,124.74,1,Tate Banker,Honey Grove,111.13,156.49,90.72,142.88,390.09,Single-ply,SBD,M,
Boys,139.71,1,Derek Patterson,Lone Oak,137.89,288.03,151.95,224.53,664.51,Single-ply,SBD,M,
Boys,139.71,2,Gavin Neece,Lone Oak,125.19,242.67,127.01,208.65,578.33,Single-ply,SBD,M,
Boys,139.71,3,Angel Raygoza,Tom Bean,132.9,156.49,120.2,158.76,435.45,Single-ply,SBD,M,
Boys,139.71,4,Jacob Bavlinka,Lone Oak,136.98,124.74,102.06,117.93,344.73,Single-ply,SBD,M,
