Division,Name,Team,WeightClassKg,BodyweightKg,Squat1Kg,Squat2Kg,Squat3Kg,Best3SquatKg,Bench1Kg,Bench2Kg,Bench3Kg,Best3BenchKg,Deadlift1Kg,Deadlift2Kg,Deadlift3Kg,Best3DeadliftKg,TotalKg,Event,Equipment,Sex,Place
1A-2A,Ben Bartlett,St. John,52,,120.2,127.01,-133.81,127.01,54.43,61.23,-63.5,61.23,122.47,136.08,145.15,145.15,333.39,SBD,Single-ply,M,1
1A-2A,Lashun Hicks,Scott Central,52,48.53,102.06,117.93,-136.08,117.93,58.97,63.5,68.04,68.04,113.4,-136.08,142.88,142.88,328.85,SBD,Single-ply,M,2
1A-2A,Sam Evans,Newton,52,51.44,-83.91,-83.91,83.91,83.91,-56.7,58.97,-61.23,58.97,113.4,127.01,-138.35,127.01,269.89,SBD,Single-ply,M,3
1A-2A,CJ Tate,Bogue Chitto,52,51.8,79.38,86.18,-90.72,86.18,49.9,-54.43,-54.43,49.9,117.93,124.74,-129.27,124.74,260.82,SBD,Single-ply,M,4
1A-2A,Chris Moore #2,Hinds AHS,52,,68.04,-79.38,-83.91,68.04,45.36,54.43,-58.97,54.43,113.4,129.27,136.08,136.08,258.55,SBD,Single-ply,M,5
1A-2A,Marcus McDonald,Hinds AHS,56,,90.72,104.33,-113.4,104.33,61.23,68.04,72.57,72.57,142.88,154.22,163.29,163.29,340.19,SBD,Single-ply,M,1
1A-2A,Matthew Brown #10,East Webster,56,52.34,99.79,-108.86,-108.86,99.79,58.97,-65.77,-65.77,58.97,122.47,136.08,-142.88,136.08,294.84,SBD,Single-ply,M,2
1A-2A,Devin Keys,Puckett,56,,-86.18,-95.25,-95.25,,,,,,,,,,,SBD,Single-ply,M,DQ
1A-2A,Cody Bonee,Falkner,60,58.51,136.08,-142.88,142.88,142.88,83.91,92.99,-99.79,92.99,-181.44,-192.78,192.78,192.78,428.64,SBD,Single-ply,M,1
1A-2A,Terry McCoy,Perry Central,60,59.78,117.93,-122.47,-122.47,117.93,90.72,95.25,-97.52,95.25,158.76,163.29,-167.83,163.29,376.48,SBD,Single-ply,M,2
1A-2A,Greg McBeath,Scott Central,60,57.42,129.27,145.15,158.76,158.76,58.97,61.23,-68.04,61.23,154.22,-174.63,-174.63,154.22,374.21,SBD,Single-ply,M,3
1A-2A,Charles Stokes,Hinds AHS,60,,102.06,113.4,120.2,120.2,61.23,68.04,77.11,77.11,154.22,163.29,-167.83,163.29,360.61,SBD,Single-ply,M,4
1A-2A,Keil Bartholomew,St. John,60,,115.67,124.74,-133.81,124.74,61.23,68.04,72.57,72.57,136.08,147.42,-154.22,147.42,344.73,SBD,Single-ply,M,5
1A-2A,Lavanda Carmicheal,Bogue Chitto,67.5,64.05,-142.88,151.95,163.29,163.29,97.52,-104.33,-104.33,97.52,179.17,192.78,199.58,199.58,460.4,SBD,Single-ply,M,1
1A-2A,Paul Bradford,Scott Central,67.5,,154.22,181.44,-190.51,181.44,77.11,-83.91,83.91,83.91,170.1,190.51,-199.58,190.51,455.86,SBD,Single-ply,M,2
1A-2A,William Hill,Loyd Starr,67.5,,147.42,158.76,-165.56,158.76,-102.06,106.59,-113.4,106.59,174.63,183.7,-199.58,183.7,449.06,SBD,Single-ply,M,3
1A-2A,McHandy Bobbit,Scott Central,67.5,62.69,142.88,158.76,-174.63,158.76,-79.38,81.65,-90.72,81.65,170.1,188.24,195.04,195.04,435.45,SBD,Single-ply,M,4
1A-2A,Dewayne Kimble,Coffeeville,67.5,65.41,-147.42,147.42,-158.76,147.42,68.04,77.11,-81.65,77.11,181.44,-190.51,-190.51,181.44,405.97,SBD,Single-ply,M,5
1A-2A,Ray Harper,Union,67.5,64.95,-136.08,136.08,-145.15,136.08,90.72,99.79,-104.33,99.79,-181.44,-181.44,-181.44,,,SBD,Single-ply,M,DQ
1A-2A,Trell Kimmons,Coldwater,75,,170.1,183.7,195.04,195.04,83.91,-92.99,92.99,92.99,215.46,231.33,247.21,247.21,535.24,SBD,Single-ply,M,1
1A-2A,Tristan Jackson,Perry Central,75,74.21,-170.1,170.1,174.63,174.63,108.86,113.4,-117.93,113.4,217.72,231.33,242.67,242.67,530.7,SBD,Single-ply,M,2
1A-2A,Curry Johnson,Eupora,75,73.66,-149.69,165.56,-185.97,165.56,88.45,95.25,-99.79,95.25,158.76,222.26,-231.33,222.26,483.08,SBD,Single-ply,M,3
1A-2A,Nathaniel McKee,Scott Central,75,74.57,154.22,170.1,-183.7,170.1,81.65,92.99,-97.52,92.99,183.7,204.12,-226.8,204.12,467.2,SBD,Single-ply,M,4
1A-2A,Daniel Calcote,Loyd Starr,75,70.94,142.88,158.76,-165.56,158.76,92.99,-97.52,102.06,102.06,174.63,185.97,-199.58,185.97,446.79,SBD,Single-ply,M,5
1A-2A,Tyra Enoch,McLaurin,75,74.48,-142.88,142.88,-154.22,142.88,124.74,-131.54,-131.54,124.74,158.76,-176.9,-181.44,158.76,426.38,SBD,Single-ply,M,6
1A-2A,Carlo Exson,Coffeeville,82.5,81.1,217.72,-240.4,240.4,240.4,90.72,95.25,-99.79,95.25,263.08,-285.76,-285.76,263.08,598.74,SBD,Single-ply,M,1
1A-2A,Antonio Hayes,St. John,82.5,82.01,208.65,224.53,235.87,235.87,-95.25,-99.79,99.79,99.79,213.19,-224.53,224.53,224.53,560.19,SBD,Single-ply,M,2
1A-2A,Mitch Bradford,Scott Central,82.5,,181.44,-204.12,-204.12,181.44,108.86,117.93,-124.74,117.93,208.65,226.8,-251.74,226.8,526.17,SBD,Single-ply,M,3
1A-2A,Homerall Sullivan,Eupora,82.5,79.83,-158.76,158.76,-185.97,158.76,106.59,117.93,127.01,127.01,185.97,-217.72,-217.72,185.97,471.74,SBD,Single-ply,M,4
1A-2A,Brandon Sumrall,Perry Central,82.5,,-174.63,-174.63,-174.63,,,,,,,,,,,SBD,Single-ply,M,DQ
1A-2A,Lorenzo Gaillard,Falkner,90,,215.46,-235.87,235.87,235.87,111.13,124.74,-129.27,124.74,215.46,-226.8,226.8,226.8,587.4,SBD,Single-ply,M,1
1A-2A,Cedric Gray,Scott Central,90,,181.44,192.78,-197.31,192.78,97.52,104.33,108.86,108.86,226.8,249.48,-272.16,249.48,551.11,SBD,Single-ply,M,2
1A-2A,Jason Burge,St. John,90,86.18,176.9,190.51,197.31,197.31,92.99,97.52,-102.06,97.52,183.7,192.78,199.58,199.58,494.42,SBD,Single-ply,M,3
1A-2A,Johnpayton Hood,St. John,90,,154.22,167.83,-176.9,167.83,70.31,74.84,79.38,79.38,190.51,204.12,213.19,213.19,460.4,SBD,Single-ply,M,4
1A-2A,Anthony Green #3,McLaurin,90,82.74,158.76,167.83,-172.37,167.83,108.86,-117.93,-117.93,108.86,158.76,-201.85,-201.85,158.76,435.45,SBD,Single-ply,M,5
1A-2A,Kentrell Brooks,Eupora,100,98.79,226.8,-240.4,240.4,240.4,127.01,145.15,-149.69,145.15,226.8,249.48,256.28,256.28,641.83,SBD,Single-ply,M,1
1A-2A,Presley Brown,St. John,100,,-208.65,215.46,-229.06,215.46,99.79,106.59,-108.86,106.59,210.92,222.26,-235.87,222.26,544.31,SBD,Single-ply,M,2
1A-2A,Justin Boggs,McLaurin,100,94.8,-163.29,176.9,-181.44,176.9,124.74,-131.54,-133.81,124.74,190.51,226.8,-242.67,226.8,528.44,SBD,Single-ply,M,3
1A-2A,Hedrick Ficklin,South Leake,100,96.8,154.22,-165.56,167.83,167.83,-115.67,-120.2,120.2,120.2,199.58,213.19,226.8,226.8,514.83,SBD,Single-ply,M,4
1A-2A,Brian McComb,Eupora,100,96.98,154.22,-190.51,-199.58,154.22,88.45,102.06,-127.01,102.06,172.37,-217.72,-226.8,172.37,428.64,SBD,Single-ply,M,5
1A-2A,Jermayne Hinton,North Forrest,100,99.16,158.76,170.1,-185.97,170.1,-113.4,-120.2,-120.2,,,,,,,SBD,Single-ply,M,DQ
1A-2A,Kenielle Washington,Scott Central,110,104.42,-204.12,208.65,-233.6,208.65,108.86,120.2,127.01,127.01,226.8,249.48,258.55,258.55,594.21,SBD,Single-ply,M,1
1A-2A,Jimmy Harris,Hinds AHS,110,102.51,181.44,190.51,195.04,195.04,113.4,120.2,124.74,124.74,188.24,233.6,-256.28,233.6,553.38,SBD,Single-ply,M,2
1A-2A,Bradley Jett,Mantachie,125,112.85,204.12,-217.72,217.72,217.72,136.08,145.15,154.22,154.22,226.8,249.48,258.55,258.55,630.49,SBD,Single-ply,M,1
1A-2A,Chris Barrett,St. John,125,114.31,215.46,226.8,-238.14,226.8,117.93,127.01,131.54,131.54,208.65,229.06,-265.35,229.06,587.4,SBD,Single-ply,M,2
1A-2A,Daniel Sisco,Loyd Starr,125,118.21,-183.7,204.12,-215.46,204.12,142.88,147.42,-154.22,147.42,197.31,215.46,226.8,226.8,578.33,SBD,Single-ply,M,3
1A-2A,Nathan Barkley,Falkner,125,116.48,-213.19,213.19,-242.67,213.19,92.99,102.06,-106.59,102.06,204.12,217.72,-229.06,217.72,532.97,SBD,Single-ply,M,4
1A-2A,Justin Gibbs,Newton,125,116.85,181.44,192.78,-204.12,192.78,124.74,136.08,-154.22,136.08,204.12,-226.8,-238.14,204.12,532.97,SBD,Single-ply,M,5
1A-2A,Devin Ross,Hinds AHS,125,117.84,-142.88,-142.88,-142.88,,,,,,,,,,,SBD,Single-ply,M,DQ
1A-2A,Justin Waddle,Belmont,140,131.81,294.84,326.59,-362.87,326.59,117.93,131.54,-145.15,131.54,249.48,-272.16,272.16,272.16,730.28,SBD,Single-ply,M,1
1A-2A,Neal Bradford,Scott Central,140,132.63,238.14,263.08,272.16,272.16,124.74,136.08,-147.42,136.08,204.12,-215.46,215.46,215.46,623.69,SBD,Single-ply,M,2
1A-2A,Ricky Reed,McLaurin,140,134.72,192.78,219.99,231.33,231.33,129.27,138.35,-147.42,138.35,172.37,-204.12,204.12,204.12,573.79,SBD,Single-ply,M,3
1A-2A,Tony Ward,North Forrest,140,129.64,170.1,181.44,204.12,204.12,102.06,108.86,-117.93,108.86,170.1,188.24,-204.12,188.24,501.22,SBD,Single-ply,M,4
1A-2A,Larry Jenkins,East Marion,140,138.98,-163.29,163.29,-181.44,163.29,117.93,-127.01,127.01,127.01,181.44,-210.92,-213.19,181.44,471.74,SBD,Single-ply,M,5
1A-2A,Trey Powell,Baldwyn,140+,146.78,208.65,-217.72,217.72,217.72,147.42,158.76,-167.83,158.76,235.87,249.48,258.55,258.55,635.03,SBD,Single-ply,M,1
1A-2A,Ryan Melton,Mantachie,140+,151.05,204.12,219.99,226.8,226.8,163.29,174.63,181.44,181.44,190.51,215.46,-226.8,215.46,623.69,SBD,Single-ply,M,2
1A-2A,Matt Seawright,East Webster,140+,168.92,181.44,-195.04,195.04,195.04,113.4,122.47,129.27,129.27,213.19,226.8,-233.6,226.8,551.11,SBD,Single-ply,M,3
1A-2A,Mike Thorn,Sumerall,140+,,-199.58,199.58,215.46,215.46,92.99,102.06,-111.13,102.06,195.04,-215.46,-233.6,195.04,512.56,SBD,Single-ply,M,4
1A-2A,Anthony Stevenson,Bogue Chitto,140+,140.43,-179.17,-195.04,-195.04,,,,,,,,,,,SBD,Single-ply,M,DQ
3A,Trey Ahrens,Charleston,52,,-113.4,113.4,122.47,122.47,58.97,65.77,72.57,72.57,140.61,149.69,158.76,158.76,353.8,SBD,Single-ply,M,1
3A,Jason Robbins,North Pontotoc,52,,106.59,115.67,-120.2,115.67,61.23,-65.77,-65.77,61.23,147.42,154.22,-156.49,154.22,331.12,SBD,Single-ply,M,2
3A,William Lake #2,Senatobia,52,51.44,111.13,120.2,-124.74,120.2,-63.5,63.5,-72.57,63.5,117.93,136.08,-142.88,136.08,319.78,SBD,Single-ply,M,3
3A,Joshua Cox,North Pike,52,,102.06,-111.13,-113.4,102.06,-68.04,-68.04,68.04,68.04,131.54,138.35,-151.95,138.35,308.44,SBD,Single-ply,M,4
3A,Anthony Benson,Pontotoc,56,55.43,149.69,165.56,172.37,172.37,65.77,70.31,-74.84,70.31,149.69,-161.03,163.29,163.29,405.97,SBD,Single-ply,M,1
3A,Jarvis Hill,Senatobia,56,,136.08,142.88,147.42,147.42,83.91,-90.72,90.72,90.72,145.15,165.56,-167.83,165.56,403.7,SBD,Single-ply,M,2
3A,Seth Lee,Nettleton,56,,-122.47,122.47,-129.27,122.47,-83.91,-88.45,88.45,88.45,158.76,-170.1,170.1,170.1,381.02,SBD,Single-ply,M,3
3A,Zamon Grainger,Wilkinson Co.,56,55.34,122.47,133.81,-142.88,133.81,79.38,88.45,-95.25,88.45,136.08,151.95,-161.03,151.95,374.21,SBD,Single-ply,M,4
3A,Jeremy Hamlin,Wilkinson Co.,56,,122.47,-133.81,-147.42,122.47,79.38,90.72,-95.25,90.72,136.08,151.95,-161.03,151.95,365.14,SBD,Single-ply,M,5
3A,Jess Dilley,Forest,56,55.7,99.79,111.13,117.93,117.93,68.04,74.84,-79.38,74.84,136.08,154.22,-158.76,154.22,347,SBD,Single-ply,M,6
3A,Alexander Dale,Heidelberg,56,55.34,90.72,-102.06,-113.4,90.72,61.23,72.57,-79.38,72.57,136.08,-151.95,-154.22,136.08,299.37,SBD,Single-ply,M,7
3A,Preston Everett,Amory,60,,158.76,174.63,181.44,181.44,113.4,-120.2,120.2,120.2,170.1,181.44,-192.78,181.44,483.08,SBD,Single-ply,M,1
3A,Urenzo Ephion,Wilkinson Co.,60,59.96,122.47,131.54,138.35,138.35,81.65,90.72,-95.25,90.72,174.63,181.44,190.51,190.51,419.57,SBD,Single-ply,M,2
3A,Jason Lopez #4,Forest,60,,117.93,136.08,145.15,145.15,74.84,90.72,-95.25,90.72,158.76,174.63,183.7,183.7,419.57,SBD,Single-ply,M,3
3A,Mikie Brown,Wilkinson Co.,60,,124.74,140.61,-154.22,140.61,83.91,92.99,97.52,97.52,174.63,181.44,-185.97,181.44,419.57,SBD,Single-ply,M,4
3A,Jake Ray,Pontotoc,60,,-138.35,-149.69,-149.69,,,,,,,,,,,SBD,Single-ply,M,DQ
3A,Darcell Young,Yazoo Co.,67.5,67.13,142.88,156.49,167.83,167.83,95.25,102.06,-106.59,102.06,195.04,201.85,-210.92,201.85,471.74,SBD,Single-ply,M,1
3A,Trivaun Wells,Forest,67.5,,-149.69,154.22,-163.29,154.22,-102.06,108.86,113.4,113.4,-195.04,204.12,-213.19,204.12,471.74,SBD,Single-ply,M,2
3A,Ian Wallace,Wilkinson Co.,67.5,65.95,-147.42,147.42,161.03,161.03,102.06,-108.86,-108.86,102.06,183.7,197.31,-206.38,197.31,460.4,SBD,Single-ply,M,3
3A,Ralo Birge,Cleveland,67.5,,142.88,-151.95,-151.95,142.88,-108.86,108.86,-117.93,108.86,-181.44,-181.44,181.44,181.44,433.18,SBD,Single-ply,M,4
3A,John Lewis,Cleveland,67.5,66.77,140.61,149.69,-151.95,149.69,90.72,92.99,-95.25,92.99,181.44,185.97,-188.24,185.97,428.64,SBD,Single-ply,M,5
3A,Conard Tate,Ripley,67.5,65.41,142.88,165.56,-176.9,165.56,-83.91,-83.91,-83.91,,,,,,,SBD,Single-ply,M,DQ
3A,Jarvis Pittman,North Pike,67.5,,129.27,136.08,-151.95,136.08,-102.06,-104.33,-104.33,,,,,,,SBD,Single-ply,M,DQ
3A,Josh Ott,Charleston,75,,-183.7,183.7,197.31,197.31,102.06,111.13,117.93,117.93,204.12,219.99,235.87,235.87,551.11,SBD,Single-ply,M,1
3A,Desmond Murray,Philadelphia,75,72.67,179.17,183.7,188.24,188.24,97.52,102.06,106.59,106.59,219.99,242.67,-256.28,242.67,537.51,SBD,Single-ply,M,2
3A,Clay Caffey,Senatobia,75,74.93,167.83,-183.7,183.7,183.7,97.52,102.06,-106.59,102.06,190.51,208.65,-213.19,208.65,494.42,SBD,Single-ply,M,3
3A,James Jones,Wilkinson Co.,75,72.21,165.56,181.44,-192.78,181.44,102.06,108.86,-113.4,108.86,192.78,199.58,-206.38,199.58,489.88,SBD,Single-ply,M,4
3A,Chris McCurly,Philadelphia,75,,-158.76,158.76,-174.63,158.76,102.06,104.33,-106.59,104.33,192.78,219.99,226.8,226.8,489.88,SBD,Single-ply,M,5
3A,Dennarius Mitchell,North Pontotoc,75,68.76,138.35,142.88,-147.42,142.88,83.91,90.72,-95.25,90.72,-181.44,-181.44,181.44,181.44,415.04,SBD,Single-ply,M,6
3A,Carlessio Blanks,West Lauderdale,82.5,82.1,204.12,-222.26,226.8,226.8,-136.08,136.08,149.69,149.69,195.04,204.12,215.46,215.46,591.94,SBD,Single-ply,M,1
3A,Craig Westmoreland,North Pontotoc,82.5,,204.12,208.65,-213.19,208.65,102.06,106.59,-108.86,106.59,222.26,231.33,235.87,235.87,551.11,SBD,Single-ply,M,2
3A,Amad Wyatt,Wilkinson Co.,82.5,,183.7,204.12,215.46,215.46,102.06,106.59,111.13,111.13,208.65,217.72,-226.8,217.72,544.31,SBD,Single-ply,M,3
3A,Earnest Frieson,Charleston,82.5,79.47,183.7,-195.04,195.04,195.04,104.33,-113.4,-122.47,104.33,190.51,-206.38,206.38,206.38,505.76,SBD,Single-ply,M,4
3A,Ryshondi Rogers,Amite,82.5,,199.58,213.19,-229.06,213.19,-104.33,111.13,-117.93,111.13,-181.44,181.44,-195.04,181.44,505.76,SBD,Single-ply,M,5
3A,Jamall Owens,Yazoo Co.,82.5,81.28,-190.51,-199.58,-199.58,,,,,,,,,,,SBD,Single-ply,M,DQ
3A,Lemoine Robinson,Hazelhurst,90,87.09,215.46,226.8,249.48,249.48,142.88,156.49,-165.56,156.49,226.8,238.14,249.48,249.48,655.44,SBD,Single-ply,M,1
3A,Chris Kennedy #5,Pontotoc,90,86.55,215.46,229.06,-238.14,229.06,122.47,129.27,-136.08,129.27,238.14,265.35,276.69,276.69,635.03,SBD,Single-ply,M,2
3A,Jonathan Mitchell,Forest,90,85.91,-172.37,190.51,-204.12,190.51,127.01,136.08,-140.61,136.08,226.8,238.14,244.94,244.94,571.53,SBD,Single-ply,M,3
3A,Tyrone Davis,Charleston,90,89.54,185.97,197.31,-208.65,197.31,136.08,145.15,-154.22,145.15,195.04,208.65,219.99,219.99,562.45,SBD,Single-ply,M,4
3A,Deshaune Grant,Charleston,90,,183.7,195.04,-206.38,195.04,102.06,108.86,-113.4,108.86,233.6,247.21,254.01,254.01,557.92,SBD,Single-ply,M,5
3A,Prentiss Vivians,Forest,90,89.27,-163.29,170.1,-185.97,170.1,120.2,124.74,-129.27,124.74,235.87,258.55,-274.42,258.55,553.38,SBD,Single-ply,M,6
3A,Kendall Crum,Pontotoc,100,,229.06,244.94,258.55,258.55,120.2,124.74,129.27,129.27,238.14,265.35,-290.3,265.35,653.17,SBD,Single-ply,M,1
3A,Luke Fredick,Wilkinson Co.,100,,204.12,235.87,258.55,258.55,113.4,120.2,124.74,124.74,215.46,238.14,,238.14,621.42,SBD,Single-ply,M,2
3A,David Dale,Amory,100,96.52,192.78,206.38,213.19,213.19,136.08,145.15,-154.22,145.15,204.12,217.72,-226.8,217.72,576.06,SBD,Single-ply,M,3
3A,Chazron Foster,Charleston,100,92.26,185.97,199.58,213.19,213.19,99.79,108.86,115.67,115.67,215.46,-231.33,231.33,231.33,560.19,SBD,Single-ply,M,4
3A,Ivy Harrel,Amite,100,98.7,170.1,183.7,-199.58,183.7,108.86,115.67,-122.47,115.67,215.46,-238.14,-238.14,215.46,514.83,SBD,Single-ply,M,5
3A,Danny Siefker,West Lauderdale,100,,183.7,190.51,-197.31,190.51,97.52,102.06,-104.33,102.06,208.65,217.72,-226.8,217.72,510.29,SBD,Single-ply,M,6
3A,Greg Porter,Hazelhurst,110,105.78,183.7,204.12,213.19,213.19,136.08,151.95,-154.22,151.95,213.19,226.8,240.4,240.4,605.55,SBD,Single-ply,M,1
3A,Pat Bozeman,Hazelhurst,110,106.59,-195.04,195.04,-210.92,195.04,117.93,-127.01,-127.01,117.93,206.38,215.46,226.8,226.8,539.77,SBD,Single-ply,M,2
3A,Larry Hall,Franklin Co..,110,105.69,142.88,195.04,-206.38,195.04,102.06,108.86,-117.93,108.86,165.56,210.92,226.8,226.8,530.7,SBD,Single-ply,M,3
3A,Tyler Tatum,Nettleton,110,109.23,163.29,172.37,181.44,181.44,-122.47,-124.74,124.74,124.74,-215.46,224.53,-235.87,224.53,530.7,SBD,Single-ply,M,4
3A,Anthony Gray,Philadelphia,125,118.21,244.94,-256.28,256.28,256.28,111.13,-120.2,120.2,120.2,226.8,244.94,-251.74,244.94,621.42,SBD,Single-ply,M,1
3A,Jeremy Garrett,Senatobia,125,120.66,195.04,204.12,215.46,215.46,149.69,154.22,-161.03,154.22,235.87,242.67,-256.28,242.67,612.35,SBD,Single-ply,M,2
3A,Tommie Lee,Amite,125,120.29,226.8,249.48,-256.28,249.48,111.13,122.47,-131.54,122.47,219.99,233.6,-249.48,233.6,605.55,SBD,Single-ply,M,3
3A,Jess McDonald,Senatobia,125,116.12,192.78,199.58,-204.12,199.58,145.15,-149.69,-149.69,145.15,235.87,-240.4,-240.4,235.87,580.6,SBD,Single-ply,M,4
3A,Bryant Green,Cleveland,140,128.19,226.8,238.14,249.48,249.48,113.4,-124.74,-124.74,113.4,226.8,240.4,-249.48,240.4,603.28,SBD,Single-ply,M,1
3A,Eddie Veals,Wilkinson Co.,140,127.01,204.12,229.06,-254.01,229.06,131.54,-142.88,142.88,142.88,215.46,-238.14,-240.4,215.46,587.4,SBD,Single-ply,M,2
3A,Malcom Bender,Amory,140,125.92,197.31,-215.46,-215.46,197.31,120.2,-124.74,-124.74,120.2,215.46,226.8,-238.14,226.8,544.31,SBD,Single-ply,M,3
3A,Donte Lucas,Cleveland,140,129.64,174.63,188.24,197.31,197.31,90.72,97.52,-102.06,97.52,208.65,226.8,235.87,235.87,530.7,SBD,Single-ply,M,4
3A,Cameron Jones #6,South Pontotoc,140,128.91,154.22,170.1,181.44,181.44,-111.13,111.13,120.2,120.2,204.12,226.8,-244.94,226.8,528.44,SBD,Single-ply,M,5
3A,Eric Pace,West Lauderdale,140,,204.12,-222.26,-222.26,204.12,-99.79,-99.79,-99.79,,,,,,,SBD,Single-ply,M,DQ
3A,Elliot Davis,Amite,140,,-226.8,-226.8,-226.8,,,,,,,,,,,SBD,Single-ply,M,DQ
3A,Jeremy Jones,Velma Jackson,140,129.46,-215.46,-215.46,215.46,215.46,-120.2,-120.2,-120.2,,,,,,,SBD,Single-ply,M,DQ
3A,Blake Fenn,North Pike,140+,141.52,-204.12,204.12,226.8,226.8,124.74,131.54,-136.08,131.54,208.65,226.8,231.33,231.33,589.67,SBD,Single-ply,M,1
3A,Davie Williams,McClain,140+,152.23,215.46,238.14,244.94,244.94,90.72,-99.79,99.79,99.79,204.12,226.8,-247.21,226.8,571.53,SBD,Single-ply,M,2
3A,Kevin Williams,Wilkinson Co.,140+,,181.44,192.78,204.12,204.12,108.86,117.93,-122.47,117.93,215.46,226.8,233.6,233.6,555.65,SBD,Single-ply,M,3
3A,Wesley Hendrix,Pontotoc,140+,180.08,195.04,208.65,226.8,226.8,90.72,-95.25,97.52,97.52,176.9,190.51,206.38,206.38,530.7,SBD,Single-ply,M,4
3A,Hardy Fox,Franklin Co..,140+,,183.7,-204.12,-240.4,183.7,145.15,-149.69,149.69,149.69,165.56,190.51,-206.38,190.51,523.9,SBD,Single-ply,M,5
3A,Kevin Hollis,Itawamba,140+,184.88,151.95,181.44,197.31,197.31,83.91,-97.52,-104.33,83.91,151.95,172.37,-185.97,172.37,453.59,SBD,Single-ply,M,6
4A,Adrean Forest,West Point,52,51.8,117.93,-129.27,138.35,138.35,56.7,65.77,72.57,72.57,147.42,167.83,174.63,174.63,385.55,SBD,Single-ply,M,1
4A,Justin Guy,Pearl,52,,120.2,-133.81,138.35,138.35,70.31,74.84,79.38,79.38,149.69,163.29,-174.63,163.29,381.02,SBD,Single-ply,M,2
4A,Marcus Thomas,Aberdeen,52,,-79.38,95.25,-124.74,95.25,58.97,68.04,-77.11,68.04,-115.67,127.01,136.08,136.08,299.37,SBD,Single-ply,M,3
4A,Matt Smith #17,Pearl River Central,52,49.71,90.72,95.25,99.79,99.79,63.5,68.04,70.31,70.31,102.06,-117.93,124.74,124.74,294.84,SBD,Single-ply,M,4
4A,Mark Manasco,Quitman,52,,72.57,97.52,-104.33,97.52,43.09,52.16,56.7,56.7,-113.4,-136.08,140.61,140.61,294.84,SBD,Single-ply,M,5
4A,Josh Vreeland,Quitman,52,51.98,72.57,90.72,104.33,104.33,45.36,54.43,58.97,58.97,108.86,122.47,-133.81,122.47,285.76,SBD,Single-ply,M,6
4A,Quincy Page,Aberdeen,56,,151.95,165.56,-176.9,165.56,70.31,77.11,86.18,86.18,158.76,176.9,185.97,185.97,437.72,SBD,Single-ply,M,1
4A,Cedric Hughes,West Point,56,,145.15,161.03,167.83,167.83,-72.57,72.57,81.65,81.65,161.03,174.63,181.44,181.44,430.91,SBD,Single-ply,M,2
4A,Corey Allen,Lawrence County,56,,147.42,163.29,-172.37,163.29,72.57,81.65,86.18,86.18,149.69,165.56,-172.37,165.56,415.04,SBD,Single-ply,M,3
4A,Mikey Groom,Florence,56,,145.15,156.49,-172.37,156.49,86.18,-90.72,-95.25,86.18,142.88,158.76,-176.9,158.76,401.43,SBD,Single-ply,M,4
4A,Chris Renaldo,Ridgeland,56,54.43,104.33,115.67,-131.54,115.67,72.57,77.11,-81.65,77.11,154.22,161.03,-170.1,161.03,353.8,SBD,Single-ply,M,5
4A,La'Darius Felder,South Pike,56,54.79,115.67,124.74,-129.27,124.74,72.57,77.11,-79.38,77.11,138.35,151.95,-161.03,151.95,353.8,SBD,Single-ply,M,6
4A,Leon Seals,Pearl,60,,138.35,156.49,-179.17,156.49,86.18,92.99,97.52,97.52,-179.17,183.7,192.78,192.78,446.79,SBD,Single-ply,M,1
4A,Eric Eckford,Aberdeen,60,,-142.88,154.22,-172.37,154.22,83.91,95.25,99.79,99.79,142.88,163.29,185.97,185.97,439.98,SBD,Single-ply,M,2
4A,Matthew Brown #10,Port Gibson,60,,124.74,136.08,142.88,142.88,79.38,88.45,-92.99,88.45,151.95,165.56,174.63,174.63,405.97,SBD,Single-ply,M,3
4A,Melvin Topps,Grenada,60,57.97,129.27,140.61,-154.22,140.61,70.31,74.84,-81.65,74.84,124.74,154.22,172.37,172.37,387.82,SBD,Single-ply,M,4
4A,Stacy Lee,Stone County,60,58.51,113.4,-124.74,127.01,127.01,79.38,-86.18,-86.18,79.38,165.56,181.44,-190.51,181.44,387.82,SBD,Single-ply,M,5
4A,Matt Mollett,Quitman,60,,120.2,-140.61,-158.76,120.2,70.31,79.38,83.91,83.91,136.08,-158.76,-158.76,136.08,340.19,SBD,Single-ply,M,6
4A,Quenton McMillian,West Point,67.5,67.49,185.97,204.12,210.92,210.92,-74.84,77.11,81.65,81.65,213.19,242.67,249.48,249.48,542.04,SBD,Single-ply,M,1
4A,Richard Griffith,Pearl,67.5,,165.56,-192.78,-192.78,165.56,92.99,102.06,-106.59,102.06,204.12,-226.8,-226.8,204.12,471.74,SBD,Single-ply,M,2
4A,Jonathan Palmer,Port Gibson,67.5,,136.08,151.95,-165.56,151.95,106.59,-113.4,113.4,113.4,204.12,-226.8,-226.8,204.12,469.47,SBD,Single-ply,M,3
4A,Bo Hall,Pearl,67.5,62.41,165.56,-183.7,,165.56,83.91,-88.45,,83.91,185.97,-190.51,-197.31,185.97,435.45,SBD,Single-ply,M,4
4A,Andrew Nicholas,Port Gibson,67.5,65.5,-142.88,147.42,-183.7,147.42,77.11,86.18,-92.99,86.18,183.7,-204.12,-204.12,183.7,417.3,SBD,Single-ply,M,5
4A,Jeremy Varnado,South Pike,67.5,,120.2,129.27,-138.35,129.27,88.45,92.99,97.52,97.52,174.63,183.7,188.24,188.24,415.04,SBD,Single-ply,M,6
4A,DeMarcus Pulliam,West Point,75,71.76,192.78,213.19,217.72,217.72,108.86,-120.2,122.47,122.47,213.19,242.67,-249.48,242.67,582.87,SBD,Single-ply,M,1
4A,Terrell Hobson,Pearl,75,,188.24,210.92,-233.6,210.92,120.2,131.54,-138.35,131.54,-206.38,206.38,238.14,238.14,580.6,SBD,Single-ply,M,2
4A,Chris Abron,South Pike,75,,174.63,183.7,192.78,192.78,111.13,115.67,120.2,120.2,229.06,238.14,249.48,249.48,562.45,SBD,Single-ply,M,3
4A,Travis Collins,McComb,75,,197.31,-206.38,210.92,210.92,124.74,-129.27,-129.27,124.74,215.46,224.53,-229.06,224.53,560.19,SBD,Single-ply,M,4
4A,Cedric Crawford,Hernando,75,74.93,-192.78,192.78,-199.58,192.78,108.86,-117.93,-117.93,108.86,192.78,-204.12,-204.12,192.78,494.42,SBD,Single-ply,M,5
4A,Travis Chambliss,Quitman,82.5,78.38,181.44,204.12,219.99,219.99,111.13,120.2,127.01,127.01,210.92,226.8,238.14,238.14,585.13,SBD,Single-ply,M,1
4A,Hervie Martin,Oxford,82.5,81.28,185.97,199.58,-213.19,199.58,102.06,106.59,-115.67,106.59,240.4,265.35,-281.23,265.35,571.53,SBD,Single-ply,M,2
4A,Corwin Fair,Aberdeen,82.5,76.29,195.04,-213.19,-213.19,195.04,90.72,106.59,-117.93,106.59,224.53,249.48,-269.89,249.48,551.11,SBD,Single-ply,M,3
4A,Corlando McChristian,Grenada,82.5,81.01,199.58,-213.19,-213.19,199.58,-120.2,120.2,-131.54,120.2,208.65,226.8,-233.6,226.8,546.58,SBD,Single-ply,M,4
4A,Matt Sloan,Vancleave,82.5,82.01,158.76,181.44,-199.58,181.44,-102.06,-108.86,108.86,108.86,167.83,188.24,-204.12,188.24,478.54,SBD,Single-ply,M,5
4A,Lars Johnson,Grenada,90,86.18,206.38,226.8,-231.33,226.8,124.74,-131.54,-131.54,124.74,213.19,-226.8,226.8,226.8,578.33,SBD,Single-ply,M,1
4A,Prince House,Grenada,90,84.55,195.04,208.65,219.99,219.99,104.33,115.67,-122.47,115.67,-195.04,208.65,226.8,226.8,562.45,SBD,Single-ply,M,2
4A,Isaac Bryant,Pearl,90,89.99,201.85,-224.53,-229.06,201.85,108.86,-117.93,-117.93,108.86,197.31,224.53,-254.01,224.53,535.24,SBD,Single-ply,M,3
4A,Latwan Johnson,Quitman,90,86.55,158.76,183.7,195.04,195.04,81.65,97.52,-102.06,97.52,174.63,215.46,-242.67,215.46,508.02,SBD,Single-ply,M,4
4A,Cortez Davis,Aberdeen,100,98.16,226.8,249.48,-267.62,249.48,106.59,117.93,-124.74,117.93,226.8,249.48,258.55,258.55,625.96,SBD,Single-ply,M,1
4A,DeMorris Hardman,Grenada,100,93.26,199.58,208.65,-217.72,208.65,120.2,131.54,-136.08,131.54,219.99,242.67,254.01,254.01,594.21,SBD,Single-ply,M,2
4A,Sedric Elzie,South Pike,100,94.89,183.7,195.04,208.65,208.65,-122.47,127.01,131.54,131.54,229.06,249.48,-256.28,249.48,589.67,SBD,Single-ply,M,3
4A,Nick Thompson #4,Oxford,100,93.98,204.12,-215.46,-215.46,204.12,120.2,-124.74,-124.74,120.2,-231.33,-231.33,-231.33,,,SBD,Single-ply,M,DQ
4A,Justin Knight,Pearl,110,,224.53,-278.96,297.1,297.1,-133.81,133.81,-149.69,133.81,224.53,274.42,-301.64,274.42,705.34,SBD,Single-ply,M,1
4A,Desmond Mays,Oxford,110,104.05,192.78,215.46,222.26,222.26,102.06,-115.67,115.67,115.67,-233.6,-233.6,233.6,233.6,571.53,SBD,Single-ply,M,2
4A,Bo Philyaw,Ridgeland,110,107.77,226.8,238.14,249.48,249.48,108.86,117.93,-131.54,117.93,-226.8,-226.8,-226.8,,,SBD,Single-ply,M,DQ
4A,Anthony Bang,Vancleave,110,108.41,195.04,210.92,-226.8,210.92,-147.42,-163.29,163.29,163.29,,,,,,SBD,Single-ply,M,DQ
4A,Orlando Orange,Oxford,125,111.04,231.33,254.01,-276.69,254.01,138.35,149.69,-154.22,149.69,272.16,303.91,-317.51,303.91,707.6,SBD,Single-ply,M,1
4A,David Cooper #4,Pearl,125,121.11,206.38,238.14,251.74,251.74,133.81,145.15,-158.76,145.15,192.78,215.46,-238.14,215.46,612.35,SBD,Single-ply,M,2
4A,Jack Readman,Pearl,125,116.3,210.92,-242.67,242.67,242.67,117.93,-124.74,-124.74,117.93,-215.46,226.8,235.87,235.87,596.47,SBD,Single-ply,M,3
4A,Josh Lakes,Vancleave,125,122.56,204.12,226.8,-249.48,226.8,-111.13,-117.93,117.93,117.93,215.46,226.8,235.87,235.87,580.6,SBD,Single-ply,M,4
4A,Randy Carter,South Pike,125,116.94,165.56,183.7,188.24,188.24,-117.93,124.74,-127.01,124.74,229.06,-238.14,-238.14,229.06,542.04,SBD,Single-ply,M,5
4A,TJ Mosley,Quitman,125,,192.78,-208.65,-219.99,192.78,108.86,-117.93,-122.47,108.86,197.31,208.65,-226.8,208.65,510.29,SBD,Single-ply,M,6
4A,Nick Rowe #2,Aberdeen,140,135.9,226.8,249.48,-272.16,249.48,108.86,-120.2,124.74,124.74,238.14,267.62,283.5,283.5,657.71,SBD,Single-ply,M,1
4A,Cory Williams,Lawrence County,140,129.36,249.48,272.16,-278.96,272.16,131.54,142.88,-147.42,142.88,215.46,226.8,240.4,240.4,655.44,SBD,Single-ply,M,2
4A,Ken Hibbett,West Point,140,129.55,-258.55,-267.62,267.62,267.62,92.99,102.06,-106.59,102.06,190.51,199.58,-206.38,199.58,569.26,SBD,Single-ply,M,3
4A,Jason Nelson,Pearl,140,128,197.31,-219.99,219.99,219.99,129.27,-140.61,-140.61,129.27,192.78,201.85,-219.99,201.85,551.11,SBD,Single-ply,M,4
4A,Robert Brown,Stone County,140,129.73,226.8,-240.4,-244.94,226.8,-127.01,-127.01,-127.01,,,,,,,SBD,Single-ply,M,DQ
4A,Cliff Shackleford,Hernando,140+,149.05,226.8,-272.16,285.76,285.76,147.42,170.1,-181.44,170.1,204.12,-226.8,,204.12,659.98,SBD,Single-ply,M,1
4A,Laketheric Jackson,Hernando,140+,157.03,-204.12,-204.12,204.12,204.12,-136.08,136.08,145.15,145.15,215.46,226.8,-235.87,226.8,576.06,SBD,Single-ply,M,2
4A,Anthony Allred,Tishomingo,140+,149.14,-206.38,-206.38,206.38,206.38,-120.2,120.2,-133.81,120.2,206.38,219.99,226.8,226.8,553.38,SBD,Single-ply,M,3
4A,Jacob Odom,Stone County,140+,154.13,179.17,-195.04,195.04,195.04,-102.06,102.06,111.13,111.13,192.78,226.8,-249.48,226.8,532.97,SBD,Single-ply,M,4
4A,Desmond Gardner,South Pike,140+,147.78,170.1,183.7,188.24,188.24,-97.52,-102.06,102.06,102.06,183.7,188.24,197.31,197.31,487.61,SBD,Single-ply,M,5
5A,Vernon Beamon,Olive Branch,52,,104.33,113.4,122.47,122.47,56.7,61.23,-68.04,61.23,-120.2,124.74,136.08,136.08,319.78,SBD,Single-ply,M,1
5A,Lorenzo Williams,Vicksburg,52,,97.52,-102.06,102.06,102.06,52.16,56.7,-61.23,56.7,120.2,124.74,131.54,131.54,290.3,SBD,Single-ply,M,2
5A,David Harris,South Panola,52,48.17,90.72,95.25,102.06,102.06,54.43,61.23,-65.77,61.23,113.4,120.2,124.74,124.74,288.03,SBD,Single-ply,M,3
5A,Aaron Pou,Wayne County,52,,74.84,-90.72,97.52,97.52,45.36,-52.16,52.16,52.16,102.06,115.67,131.54,131.54,281.23,SBD,Single-ply,M,4
5A,Antron Henry,Petal,52,51.17,-102.06,-102.06,-102.06,,,,,,,,,,,SBD,Single-ply,M,DQ
5A,Kenyatta Courtney,Madison Central,56,54.98,127.01,138.35,145.15,145.15,61.23,70.31,-72.57,70.31,131.54,145.15,154.22,154.22,369.68,SBD,Single-ply,M,1
5A,Qinnard Wilson,Vicksburg,56,,113.4,124.74,136.08,136.08,81.65,86.18,-90.72,86.18,127.01,136.08,147.42,147.42,369.68,SBD,Single-ply,M,2
5A,James Hampton,Meridian,56,,90.72,-113.4,120.2,120.2,65.77,-79.38,-92.99,65.77,142.88,158.76,170.1,170.1,356.07,SBD,Single-ply,M,3
5A,Terrance Smith,Tupelo,56,54.88,-113.4,-120.2,124.74,124.74,58.97,65.77,-72.57,65.77,136.08,149.69,154.22,154.22,344.73,SBD,Single-ply,M,4
5A,Nick Naylor,Meridian,56,,83.91,92.99,113.4,113.4,72.57,79.38,-86.18,79.38,102.06,113.4,136.08,136.08,328.85,SBD,Single-ply,M,5
5A,Jimmie Johnson,Natchez,60,,-190.51,195.04,-199.58,195.04,79.38,83.91,-88.45,83.91,188.24,195.04,-206.38,195.04,474,SBD,Single-ply,M,1
5A,Daniel Boyette,Madison Central,60,59.96,142.88,156.49,163.29,163.29,83.91,90.72,-92.99,90.72,167.83,181.44,-190.51,181.44,435.45,SBD,Single-ply,M,2
5A,Ryan Johnson #15,Harrison Central,60,59.6,138.35,151.95,-167.83,151.95,95.25,-99.79,-99.79,95.25,136.08,142.88,-151.95,142.88,390.09,SBD,Single-ply,M,3
5A,Richard Hawthorne,St. Martin,60,58.15,-204.12,-226.8,-226.8,,,,,,,,,,,SBD,Single-ply,M,DQ
5A,Matt Landry,St. Martin,67.5,,176.9,197.31,-213.19,197.31,120.2,-129.27,-129.27,120.2,215.46,226.8,-240.4,226.8,544.31,SBD,Single-ply,M,1
5A,Larry Newsom,Olive Branch,67.5,64.68,161.03,170.1,181.44,181.44,115.67,122.47,-127.01,122.47,195.04,206.38,213.19,213.19,517.1,SBD,Single-ply,M,2
5A,Chris Harris,Wayne County,67.5,62.87,172.37,-192.78,197.31,197.31,99.79,117.93,-122.47,117.93,181.44,199.58,-217.72,199.58,514.83,SBD,Single-ply,M,3
5A,Darious Williams,Vicksburg,67.5,67.4,174.63,188.24,-192.78,188.24,113.4,120.2,122.47,122.47,192.78,-201.85,-201.85,192.78,503.49,SBD,Single-ply,M,4
5A,Funsie Young,Madison Central,67.5,,158.76,-174.63,179.17,179.17,97.52,-102.06,-102.06,97.52,199.58,215.46,-226.8,215.46,492.15,SBD,Single-ply,M,5
5A,Danny Robinson,Warren Central,67.5,63.32,163.29,172.37,-181.44,172.37,88.45,-92.99,-92.99,88.45,163.29,-181.44,-181.44,163.29,424.11,SBD,Single-ply,M,6
5A,Darrell Williams,Vicksburg,75,73.3,-204.12,204.12,229.06,229.06,113.4,-129.27,129.27,129.27,226.8,242.67,249.48,249.48,607.81,SBD,Single-ply,M,1
5A,David Berry,Brandon,75,,195.04,226.8,235.87,235.87,-113.4,131.54,-136.08,131.54,204.12,226.8,-235.87,226.8,594.21,SBD,Single-ply,M,2
5A,Justin Walker,Madison Central,75,,195.04,213.19,222.26,222.26,117.93,129.27,133.81,133.81,210.92,226.8,-238.14,226.8,582.87,SBD,Single-ply,M,3
5A,Anthony Sanders,Vicksburg,75,73.75,204.12,219.99,-231.33,219.99,-90.72,90.72,-97.52,90.72,242.67,258.55,-272.16,258.55,569.26,SBD,Single-ply,M,4
5A,Ryan Caprari,St. Martin,75,,215.46,-226.8,-226.8,215.46,99.79,-104.33,,99.79,222.26,231.33,235.87,235.87,551.11,SBD,Single-ply,M,5
5A,Shawn Dubose,Northwest Rankin,75,70.03,192.78,-204.12,-204.12,192.78,122.47,-129.27,-129.27,122.47,-213.19,-226.8,,,,SBD,Single-ply,M,DQ
5A,Jules O'keefe,St. Martin,82.5,,226.8,240.4,249.48,249.48,136.08,142.88,-147.42,142.88,222.26,233.6,240.4,240.4,632.76,SBD,Single-ply,M,1
5A,Matt McGregor,Madison Central,82.5,81.56,199.58,219.99,226.8,226.8,108.86,122.47,127.01,127.01,233.6,,-278.96,233.6,587.4,SBD,Single-ply,M,2
5A,Frankie Williams,Natchez,82.5,77.84,192.78,195.04,204.12,204.12,-115.67,115.67,-120.2,115.67,217.72,224.53,226.8,226.8,546.58,SBD,Single-ply,M,3
5A,Brandon Franklin,Northwest Rankin,82.5,,190.51,-204.12,204.12,204.12,-102.06,113.4,-120.2,113.4,204.12,226.8,-249.48,226.8,544.31,SBD,Single-ply,M,4
5A,Jason Breland,Harrison Central,82.5,81.28,158.76,-167.83,167.83,167.83,106.59,-113.4,-117.93,106.59,181.44,195.04,-204.12,195.04,469.47,SBD,Single-ply,M,5
5A,Brandon Johnson,Greenville-Weston,90,87.54,238.14,249.48,-260.82,249.48,-111.13,111.13,-115.67,111.13,263.08,281.23,-290.3,281.23,641.83,SBD,Single-ply,M,1
5A,Bennie Phillips,Gulfport,90,82.92,195.04,215.46,233.6,233.6,113.4,136.08,142.88,142.88,204.12,226.8,249.48,249.48,625.96,SBD,Single-ply,M,2
5A,Jonathan Vance,Madison Central,90,,-226.8,-226.8,226.8,226.8,122.47,131.54,-138.35,131.54,226.8,249.48,-269.89,249.48,607.81,SBD,Single-ply,M,3
5A,Elliot Marshall,Northwest Rankin,90,88.63,-204.12,204.12,-240.4,204.12,-140.61,140.61,149.69,149.69,204.12,226.8,-274.42,226.8,580.6,SBD,Single-ply,M,4
5A,Rashard Weston,Horn Lake,90,85.91,215.46,-226.8,226.8,226.8,-156.49,-156.49,-156.49,,,,,,,SBD,Single-ply,M,DQ
5A,Winston Ceasar,St. Martin,90,89.09,226.8,244.94,-263.08,244.94,-140.61,,,,,,,,,SBD,Single-ply,M,DQ
5A,Justin Randle,Vicksburg,100,94.98,226.8,244.94,254.01,254.01,124.74,129.27,133.81,133.81,249.48,272.16,276.69,276.69,664.51,SBD,Single-ply,M,1
5A,Kendrell King,Madison Central,100,97.89,238.14,258.55,272.16,272.16,115.67,122.47,129.27,129.27,238.14,-260.82,260.82,260.82,662.24,SBD,Single-ply,M,2
5A,Skylar Bush,Gulfport,100,91.35,226.8,260.82,274.42,274.42,120.2,138.35,-142.88,138.35,204.12,226.8,240.4,240.4,653.17,SBD,Single-ply,M,3
5A,Sean Mullin,Columbus,100,95.07,204.12,219.99,-226.8,219.99,124.74,-131.54,-131.54,124.74,226.8,-240.4,240.4,240.4,585.13,SBD,Single-ply,M,4
5A,Matt Jones #9,Wayne County,100,,192.78,235.87,-242.67,235.87,99.79,111.13,-117.93,111.13,-226.8,226.8,-249.48,226.8,573.79,SBD,Single-ply,M,5
5A,Phelon Gray,Vicksburg,110,106.87,249.48,283.5,288.03,288.03,-154.22,154.22,-170.1,154.22,242.67,265.35,-283.5,265.35,707.6,SBD,Single-ply,M,1
5A,Bobby Colvin,Columbus,110,108.41,240.4,254.01,-265.35,254.01,124.74,-131.54,136.08,136.08,-240.4,240.4,-254.01,240.4,630.49,SBD,Single-ply,M,2
5A,Lendrell Barksdale,South Panola,110,107.59,226.8,238.14,-249.48,238.14,129.27,140.61,-142.88,140.61,226.8,-238.14,-238.14,226.8,605.55,SBD,Single-ply,M,3
5A,Lance Garner,Petal,110,105.69,147.42,179.17,-208.65,179.17,97.52,106.59,-120.2,106.59,142.88,183.7,-192.78,183.7,469.47,SBD,Single-ply,M,4
5A,Shelton Miller,Gulfport,110,,215.46,238.14,-249.48,238.14,-136.08,-136.08,-136.08,,,,,,,SBD,Single-ply,M,DQ
5A,Mike Woods,Natchez,125,118.66,272.16,281.23,-283.5,281.23,142.88,151.95,154.22,154.22,285.76,-292.57,292.57,292.57,728.02,SBD,Single-ply,M,1
5A,Kevin Sanders #8,Greenville-Weston,125,112.67,263.08,-272.16,-272.16,263.08,158.76,-165.56,-165.56,158.76,-265.35,265.35,,265.35,687.19,SBD,Single-ply,M,2
5A,Jonathan Anderson,Madison Central,125,117.66,235.87,254.01,-276.69,254.01,106.59,117.93,-124.74,117.93,-235.87,235.87,272.16,272.16,644.1,SBD,Single-ply,M,3
5A,Chris Miller,Oak Grove,125,119.93,183.7,-210.92,-226.8,183.7,124.74,142.88,-149.69,142.88,-183.7,204.12,-240.4,204.12,530.7,SBD,Single-ply,M,4
5A,Chaise Seymour,St. Martin,125,113.85,-281.23,-290.3,-290.3,,,,,,,,,,,SBD,Single-ply,M,DQ
5A,Hollis Hoskins,South Panola,140,131.18,290.3,303.91,319.78,319.78,181.44,195.04,-204.12,195.04,-283.5,-294.84,294.84,294.84,809.66,SBD,Single-ply,M,1
5A,Aaron Ammons,Brandon,140,135.9,235.87,-260.82,276.69,276.69,151.95,165.56,167.83,167.83,247.21,265.35,274.42,274.42,718.94,SBD,Single-ply,M,2
5A,Tony Lauro,Madison Central,140,132.09,260.82,290.3,-308.44,290.3,140.61,147.42,149.69,149.69,231.33,,-281.23,231.33,671.32,SBD,Single-ply,M,3
5A,Clifton Cotton,Madison Central,140,126.82,233.6,244.94,256.28,256.28,127.01,136.08,140.61,140.61,231.33,249.48,254.01,254.01,650.91,SBD,Single-ply,M,4
5A,Shane McCaa,Wayne County,140,130.18,201.85,242.67,254.01,254.01,106.59,120.2,-133.81,120.2,201.85,235.87,-247.21,235.87,610.08,SBD,Single-ply,M,5
5A,Deonta Selvy,Warren Central,140+,,-269.89,-269.89,269.89,269.89,140.61,145.15,149.69,149.69,247.21,258.55,-260.82,258.55,678.12,SBD,Single-ply,M,1
5A,Derrick Hinkle,Vicksburg,140+,151.23,-215.46,215.46,238.14,238.14,158.76,167.83,-172.37,167.83,-215.46,215.46,226.8,226.8,632.76,SBD,Single-ply,M,2
5A,Levi Oatis,Harrison Central,140+,141.79,204.12,226.8,238.14,238.14,142.88,-158.76,165.56,165.56,226.8,-251.74,-251.74,226.8,630.49,SBD,Single-ply,M,3
5A,Daniel Williams,Tupelo,140+,146.06,217.72,-240.4,240.4,240.4,-131.54,138.35,-145.15,138.35,226.8,242.67,-254.01,242.67,621.42,SBD,Single-ply,M,4
5A,Jerell Powe,Wayne County,140+,,174.63,-215.46,226.8,226.8,102.06,136.08,140.61,140.61,185.97,219.99,-235.87,219.99,587.4,SBD,Single-ply,M,5
5A,Eric Echols,Gulfport,140+,,219.99,226.8,-249.48,226.8,-104.33,106.59,115.67,115.67,219.99,-226.8,-226.8,219.99,562.45,SBD,Single-ply,M,6
