Division,WeightClassKg,Place,Name,Team,BodyweightKg,Best3SquatKg,Best3BenchKg,Best3DeadliftKg,TotalKg,Equipment,Event,Sex
Junior Varsity,55.79,1,Mario Zarate,Kingsville King,55.43,124.74,58.97,124.74,308.44,Single-ply,SBD,M
Junior Varsity,55.79,2,Martin Cruz,San Diego,55.79,99.79,56.7,108.86,265.35,Single-ply,SBD,M
Junior Varsity,59.87,1,Anthony Huerta,Gregory-Portland,59.69,145.15,108.86,174.63,428.64,Single-ply,SBD,M
Junior Varsity,59.87,2,Cody Hartman,Corpus Christi Calallen,59.78,149.69,92.99,163.29,405.97,Single-ply,SBD,M
Junior Varsity,59.87,3,Jose Perez #19,Port Lavaca Calhoun,59.42,142.88,102.06,158.76,403.7,Single-ply,SBD,M
Junior Varsity,59.87,4,Joseph Garza,Port Lavaca Calhoun,58.51,142.88,72.57,145.15,360.61,Single-ply,SBD,M
Junior Varsity,59.87,DQ,Manuel Salazar,Refugio,58.24,90.72,,,,Single-ply,SBD,M
Junior Varsity,67.13,1,Daniel Leita,Port Lavaca Calhoun,65.77,183.7,102.06,190.51,476.27,Single-ply,SBD,M
Junior Varsity,67.13,2,Raiden Windham,Gregory-Portland,60.78,115.67,70.31,129.27,315.25,Single-ply,SBD,M
Junior Varsity,67.13,3,Dylan Giles,Corpus Christi Tuloso-Midway,62.14,111.13,56.7,111.13,278.96,Single-ply,SBD,M
Junior Varsity,74.84,1,Brandon Tompkins,Port Lavaca Calhoun,71.67,181.44,115.67,181.44,478.54,Single-ply,SBD,M
Junior Varsity,74.84,2,Scott Barrington,Corpus Christi Calallen,71.21,145.15,92.99,174.63,412.77,Single-ply,SBD,M
Junior Varsity,82.1,3,John Vela,Kingsville King,75.07,154.22,90.72,163.29,408.23,Single-ply,SBD,M
Junior Varsity,74.84,4,Orlando Bernal,San Diego,74.84,136.08,77.11,147.42,360.61,Single-ply,SBD,M
Junior Varsity,74.84,5,Tomas Medrano,Kingsville King,70.49,124.74,74.84,154.22,353.8,Single-ply,SBD,M
Junior Varsity,74.84,6,Austin Muns,Gregory-Portland,72.21,115.67,95.25,136.08,347,Single-ply,SBD,M
Junior Varsity,74.84,7,Ricardo Garcia,San Diego,73.94,106.59,72.57,138.35,317.51,Single-ply,SBD,M
Junior Varsity,82.1,1,Shavar Richard,Port Lavaca Calhoun,78.02,195.04,106.59,190.51,492.15,Single-ply,SBD,M
Junior Varsity,82.1,2,Dustin Flores,Corpus Christi Calallen,75.75,165.56,117.93,181.44,464.93,Single-ply,SBD,M
Junior Varsity,89.81,3,Jordan Garcia #5,Corpus Christi Calallen,82.33,140.61,97.52,154.22,392.36,Single-ply,SBD,M
Junior Varsity,82.1,4,Taylor Molina,Kingsville King,81.65,124.74,68.04,138.35,331.12,Single-ply,SBD,M
Junior Varsity,82.1,DQ,Mario Mendoza,Port Lavaca Calhoun,81.92,,,,,Single-ply,SBD,M
Junior Varsity,89.81,1,Hugo Compus,Port Lavaca Calhoun,84.82,151.95,104.33,142.88,399.16,Single-ply,SBD,M
Junior Varsity,89.81,2,John Castro,Corpus Christi Tuloso-Midway,83.55,142.88,81.65,120.2,344.73,Single-ply,SBD,M
Junior Varsity,99.79,1,Joseph Rodriguez #10,Corpus Christi Tuloso-Midway,97.52,181.44,111.13,174.63,467.2,Single-ply,SBD,M
Junior Varsity,99.79,2,Vince Narvaez,Corpus Christi Tuloso-Midway,95.89,183.7,120.2,149.69,453.59,Single-ply,SBD,M
Junior Varsity,99.79,3,Weston Juelg,Corpus Christi Calallen,96.71,142.88,95.25,133.81,371.95,Single-ply,SBD,M
Junior Varsity,99.79,DQ,Justin Pena,Port Lavaca Calhoun,96.62,,,,,Single-ply,SBD,M
Junior Varsity,99.79,DQ,Juan Lopez,Kingsville King,99.43,,,,,Single-ply,SBD,M
Junior Varsity,109.77,1,Thomas Campos,Gregory-Portland,100.79,204.12,124.74,199.58,528.44,Single-ply,SBD,M
Junior Varsity,109.77,2,Jeremy Trevino,Gregory-Portland,104.51,167.83,99.79,161.03,428.64,Single-ply,SBD,M
Junior Varsity,124.74,1,William Withers,Gregory-Portland,121.74,204.12,129.27,204.12,537.51,Single-ply,SBD,M
Junior Varsity,124.74,2,David Lee Garza,Kingsville King,112.85,192.78,102.06,201.85,496.68,Single-ply,SBD,M
Junior Varsity,124.74,3,Ryan Everett,Corpus Christi Calallen,123.01,199.58,108.86,181.44,489.88,Single-ply,SBD,M
Junior Varsity,124.74+,1,Joe Rodriguez,Kingsville King,127.37,197.31,120.2,170.1,487.61,Single-ply,SBD,M
Junior Varsity,124.74+,2,Bernie Zarate,Kingsville King,132.18,156.49,81.65,181.44,419.57,Single-ply,SBD,M
Junior Varsity,,NS,Nicolas Tovar,Corpus Christi Calallen,,,,,,Single-ply,SBD,M
Varsity,51.71,1,Randy Trevino,Gregory-Portland,50.44,167.83,81.65,185.97,435.45,Single-ply,SBD,M
Varsity,51.71,2,Moc Moo,Port Lavaca Calhoun,51.71,136.08,77.11,129.27,342.46,Single-ply,SBD,M
Varsity,51.71,3,Weston Skoruppa,Corpus Christi Calallen,49.8,63.5,56.7,99.79,219.99,Single-ply,SBD,M
Varsity,59.87,1,Aaron Martinez,Corpus Christi Calallen,55.97,156.49,95.25,176.9,428.64,Single-ply,SBD,M
Varsity,55.79,2,Joe Castillo #4,Gregory-Portland,53.07,156.49,88.45,176.9,421.84,Single-ply,SBD,M
Varsity,55.79,3,Jared Medina,Banquete,55.43,161.03,86.18,174.63,421.84,Single-ply,SBD,M
Varsity,55.79,4,Patrick Ayala,Banquete,55.7,149.69,74.84,183.7,408.23,Single-ply,SBD,M
Varsity,55.79,5,Dylan Breland,Banquete,54.98,131.54,72.57,145.15,349.27,Single-ply,SBD,M
Varsity,55.79,6,Brady Carpenter,Skidmore-Tynan,53.34,86.18,58.97,115.67,260.82,Single-ply,SBD,M
Varsity,55.79,DQ,Michael Perez,Corpus Christi Tuloso-Midway,53.43,97.52,,,,Single-ply,SBD,M
Varsity,59.87,1,Jarrett Buford,Port Lavaca Calhoun,59.42,195.04,129.27,195.04,519.36,Single-ply,SBD,M
Varsity,67.13,2,Jacob de la Paz,Corpus Christi Calallen,60.1,199.58,97.52,201.85,498.95,Single-ply,SBD,M
Varsity,67.13,3,Harry Avellan,Corpus Christi Tuloso-Midway,59.96,167.83,99.79,179.17,446.79,Single-ply,SBD,M
Varsity,59.87,4,Jonathan Galvan,Corpus Christi Tuloso-Midway,58.97,136.08,88.45,147.42,371.95,Single-ply,SBD,M
Varsity,74.84,1,Damian Cisneros,Gregory-Portland,67.31,210.92,113.4,213.19,537.51,Single-ply,SBD,M
Varsity,67.13,2,Jd Savanich,Corpus Christi Calallen,66.41,199.58,115.67,190.51,505.76,Single-ply,SBD,M
Varsity,67.13,3,Daniel Martinez #16,Port Lavaca Calhoun,63.96,172.37,102.06,206.38,480.81,Single-ply,SBD,M
Varsity,67.13,4,Gabriel Cantu,Corpus Christi Calallen,67.04,165.56,106.59,208.65,480.81,Single-ply,SBD,M
Varsity,67.13,5,Daniel May,Port Lavaca Calhoun,65.77,176.9,113.4,172.37,462.66,Single-ply,SBD,M
Varsity,67.13,6,Alex Rocha,Skidmore-Tynan,66.68,170.1,122.47,165.56,458.13,Single-ply,SBD,M
Varsity,67.13,7,Thomas Aranda,Refugio,65.5,158.76,95.25,183.7,437.72,Single-ply,SBD,M
Varsity,67.13,8,Alex Rodriguez #3,Corpus Christi Calallen,66.04,163.29,81.65,156.49,401.43,Single-ply,SBD,M
Varsity,67.13,9,Nicholas Hernandez,Skidmore-Tynan,62.32,124.74,74.84,156.49,356.07,Single-ply,SBD,M
Varsity,67.13,DQ,John Ruth,Gregory-Portland,67.13,,,,,Single-ply,SBD,M
Varsity,67.13,DQ,Jade Haney,Port Lavaca Calhoun,66.22,210.92,,,,Single-ply,SBD,M
Varsity,74.84,1,Tristan Pelitire,Beeville Jones,74.75,251.74,170.1,235.87,657.71,Single-ply,SBD,M
Varsity,82.1,2,Jared Garcia,Corpus Christi Calallen,75.02,235.87,138.35,244.94,619.15,Single-ply,SBD,M
Varsity,74.84,3,James Bain,Corpus Christi Tuloso-Midway,74.48,235.87,127.01,238.14,601.01,Single-ply,SBD,M
Varsity,74.84,4,Christian Salazar,Corpus Christi Tuloso-Midway,72.3,219.99,138.35,213.19,571.53,Single-ply,SBD,M
Varsity,74.84,5,Edward DeLeon,Port Lavaca Calhoun,73.03,188.24,120.2,181.44,489.88,Single-ply,SBD,M
Varsity,74.84,DQ,Jonathan Garcia #8,Kingsville King,69.94,158.76,,,,Single-ply,SBD,M
Varsity,82.1,1,Ricky Benavidez,Banquete,77.66,226.8,149.69,258.55,635.03,Single-ply,SBD,M
Varsity,82.1,2,Nico Recio,Kingsville Academy,81.19,222.26,127.01,229.06,578.33,Single-ply,SBD,M
Varsity,82.1,3,Nathan Sanchez #3,Corpus Christi Calallen,80.38,217.72,113.4,226.8,557.92,Single-ply,SBD,M
Varsity,82.1,4,Angel Casas,Corpus Christi Tuloso-Midway,81.74,204.12,124.74,195.04,523.9,Single-ply,SBD,M
Varsity,82.1,5,Link Emard,Corpus Christi Calallen,77.38,176.9,113.4,179.17,469.47,Single-ply,SBD,M
Varsity,82.1,6,Abel Rodriguez,Corpus Christi Tuloso-Midway,81.83,161.03,115.67,151.95,428.64,Single-ply,SBD,M
Varsity,89.81,1,Jacob Flores,Beeville Jones,88.72,254.01,136.08,249.48,639.57,Single-ply,SBD,M
Varsity,89.81,2,Daniel Herrera,Banquete,89.36,217.72,120.2,208.65,546.58,Single-ply,SBD,M
Varsity,89.81,3,Ryan Lakso,Skidmore-Tynan,89.81,206.38,106.59,226.8,539.77,Single-ply,SBD,M
Varsity,89.81,4,Michael Ruelas,Kingsville King,86.82,172.37,106.59,181.44,460.4,Single-ply,SBD,M
Varsity,89.81,5,Jorge Salazar,Kingsville Academy,83.73,151.95,106.59,151.95,410.5,Single-ply,SBD,M
Varsity,89.81,DQ,Joseph Perez,Refugio,89.45,,,,,Single-ply,SBD,M
Varsity,89.81,DQ,Omar Medrano,Kingsville King,86.64,204.12,,,,Single-ply,SBD,M
Varsity,99.79,1,Blade Bronstad,Corpus Christi Calallen,96.8,281.23,149.69,265.35,696.26,Single-ply,SBD,M
Varsity,99.79,2,Matthew Dickson,Corpus Christi Tuloso-Midway,93.89,249.48,156.49,251.74,657.71,Single-ply,SBD,M
Varsity,99.79,3,Eddie Garcia,Port Lavaca Calhoun,99.34,249.48,115.67,201.85,566.99,Single-ply,SBD,M
Varsity,99.79,4,Aaron Rodriguez,Beeville Jones,98.79,226.8,151.95,185.97,564.72,Single-ply,SBD,M
Varsity,99.79,5,Derric Robinson,Port Lavaca Calhoun,94.35,188.24,136.08,217.72,542.04,Single-ply,SBD,M
Varsity,99.79,6,Michael Munoz,Bishop,90.72,215.46,113.4,208.65,537.51,Single-ply,SBD,M
Varsity,99.79,7,Charles West,Gregory-Portland,95.44,195.04,108.86,224.53,528.44,Single-ply,SBD,M
Varsity,99.79,8,Jason Patterson,Kingsville King,91.9,204.12,111.13,208.65,523.9,Single-ply,SBD,M
Varsity,99.79,9,Aaron Puga,Beeville Jones,95.8,197.31,115.67,206.38,519.36,Single-ply,SBD,M
Varsity,99.79,10,Rubelin Torres,Kingsville Academy,91.99,183.7,102.06,224.53,510.29,Single-ply,SBD,M
Varsity,99.79,11,Nick Avila,Skidmore-Tynan,91.35,138.35,79.38,136.08,353.8,Single-ply,SBD,M
Varsity,109.77,1,Michael Rodriguez #4,Kingsville King,109.5,358.34,240.4,290.3,889.04,Single-ply,SBD,M
Varsity,109.77,2,Brendon Breland,Banquete,103.24,294.84,172.37,258.55,725.75,Single-ply,SBD,M
Varsity,109.77,3,Matthew Botello,Beeville Jones,107.59,235.87,147.42,213.19,596.47,Single-ply,SBD,M
Varsity,109.77,4,Adrian Puga,Beeville Jones,105.23,204.12,124.74,206.38,535.24,Single-ply,SBD,M
Varsity,109.77,5,Nathaniel Caskie,Corpus Christi Calallen,106.14,217.72,111.13,204.12,532.97,Single-ply,SBD,M
Varsity,109.77,6,Devin Tagle,Refugio,109.41,190.51,136.08,192.78,519.36,Single-ply,SBD,M
Varsity,109.77,7,Christian Mascorro,Refugio,108.68,195.04,120.2,195.04,510.29,Single-ply,SBD,M
Varsity,109.77,8,Cody Dablestein,Corpus Christi Calallen,105.23,183.7,140.61,183.7,508.02,Single-ply,SBD,M
Varsity,109.77,DQ,Frankie Lopez,Corpus Christi Tuloso-Midway,105.41,238.14,,,,Single-ply,SBD,M
Varsity,109.77,DQ,Aaron Gutierrez,Kingsville King,109.32,,,,,Single-ply,SBD,M
Varsity,124.74,1,Dakota Cooksy,Corpus Christi Calallen,110.22,319.78,183.7,276.69,780.18,Single-ply,SBD,M
Varsity,124.74,2,Isaac Salinas #1,Gregory-Portland,114.58,240.4,149.69,208.65,598.74,Single-ply,SBD,M
Varsity,124.74,3,Arturo Romero,Port Lavaca Calhoun,123.38,254.01,129.27,215.46,598.74,Single-ply,SBD,M
Varsity,124.74,4,Zeke Calzada,Port Lavaca Calhoun,112.94,217.72,145.15,226.8,589.67,Single-ply,SBD,M
Varsity,124.74,5,Nicholas Zapata,Bishop,122.47,244.94,136.08,195.04,576.06,Single-ply,SBD,M
Varsity,124.74,6,Trace Mascorro,Refugio,110.4,181.44,131.54,185.97,498.95,Single-ply,SBD,M
Varsity,124.74,DQ,Jacob Rodriguez #4,Corpus Christi Tuloso-Midway,115.48,,,,,Single-ply,SBD,M
Varsity,124.74,DQ,Vince Gutierrez,Corpus Christi Tuloso-Midway,118.93,,,,,Single-ply,SBD,M
Varsity,124.74,DQ,Dalton Brown,Refugio,124.65,,,,,Single-ply,SBD,M
Varsity,124.74+,1,Bobby Limon,Port Lavaca Calhoun,146.24,274.42,183.7,256.28,714.41,Single-ply,SBD,M
Varsity,124.74+,2,Trey Cantu,Skidmore-Tynan,128.82,204.12,113.4,181.44,498.95,Single-ply,SBD,M
Varsity,124.74+,3,Albert Briones,Beeville Jones,129.18,106.59,86.18,142.88,335.66,Single-ply,SBD,M
Varsity,124.74+,DQ,Jonathan Lopez,Banquete,131.45,,,,,Single-ply,SBD,M
