Place,Name,State,WeightClassKg,BodyweightKg,BirthDate,Age,Squat1Kg,Squat2Kg,Squat3Kg,Best3SquatKg,Bench1Kg,Bench2Kg,Bench3Kg,Best3BenchKg,Deadlift1Kg,Deadlift2Kg,Deadlift3Kg,Best3DeadliftKg,TotalKg,Squat4Kg,Bench4Kg,Deadlift4Kg,Event,Equipment,Sex,Division,Tested
1,Paulene Do,OR,52,51.8,,32,105,112.5,115,115,45,47.5,-52.5,47.5,115,120,127.5,127.5,290,,,,SBD,Raw,F,Open,Yes
1,Alice Baldwin,OR,56,54.4,,36,72.5,77.5,-80,77.5,45,47.5,-52.5,47.5,85,90,97.5,97.5,222.5,,,,SBD,Raw,F,Open,Yes
2,Michelle Boone,OR,56,55.4,,27,-62.5,62.5,67.5,67.5,45,-47.5,-50,45,75,80,87.5,87.5,200,,,,SBD,Raw,F,Open,Yes
1,Heather Campbell,OR,60,59.6,,51,82.5,87.5,95,95,60,65,-67.5,65,125,132.5,140,140,300,,,,SBD,Raw,F,Open,Yes
1,Antonia Henry,OR,67.5,67,,30,147.5,155,-160,155,82.5,-87.5,-87.5,82.5,157.5,-167.5,-167.5,157.5,395,,,,SBD,Raw,F,Open,Yes
2,Luna Bruno,OR,67.5,66,,31,125,-135,-137.5,125,82.5,87.5,-92.5,87.5,135,150,155,155,367.5,,,,SBD,Raw,F,Open,Yes
3,Laura Philpott,OR,67.5,66.2,,32,122.5,127.5,132.5,132.5,72.5,77.5,82.5,82.5,125,135,142.5,142.5,357.5,,,,SBD,Raw,F,Open,Yes
4,Chelsea Evers,OR,67.5,65.8,,31,87.5,92.5,100,100,42.5,-47.5,-47.5,42.5,95,105,112.5,112.5,255,,,,SBD,Raw,F,Open,Yes
5,Hayley Macleod,OR,67.5,64,,29,77.5,85,92.5,92.5,40,42.5,-45,42.5,100,107.5,112.5,112.5,247.5,,,,SBD,Raw,F,Open,Yes
6,Jessica Garver,OR,67.5,66,,44,82.5,87.5,92.5,92.5,47.5,50,55,55,87.5,92.5,97.5,97.5,245,,,,SBD,Raw,F,Open,Yes
1,Kat Robinson,OR,75,71.8,,30,80,85,92.5,92.5,45,47.5,50,50,100,107.5,115,115,257.5,,,,SBD,Raw,F,Open,Yes
2,Valeriya Brodnikova,OR,75,70,,30,70,75,80,80,37.5,40,42.5,42.5,87.5,92.5,100,100,222.5,,,,SBD,Raw,F,Open,Yes
1,Paris Hart,OR,82.5,82,,29,135,140,147.5,147.5,80,-85,-85,80,175,182.5,190,190,417.5,,,,SBD,Raw,F,Open,Yes
1,Jessica Parker,OR,90,88.4,,31,115,122.5,127.5,127.5,57.5,62.5,65,65,127.5,137.5,147.5,147.5,340,,,,SBD,Raw,F,Open,Yes
1,Laura Hartle,OR,100,95.4,,35,130,137.5,145,145,70,75,80,80,140,152.5,162.5,162.5,387.5,,,,SBD,Raw,F,Open,Yes
2,Jo Grassman,OR,100,96.4,,25,102.5,107.5,110,110,67.5,72.5,-77.5,72.5,122.5,127.5,132.5,132.5,315,,,,SBD,Raw,F,Open,Yes
3,Amber Hatzelhoffer,OR,100,96.6,,23,60,70,-80,70,45,50,-55,50,85,92.5,97.5,97.5,217.5,,,,SBD,Raw,F,Open,Yes
1,Alice Baldwin,OR,56,54.4,,36,72.5,77.5,-80,77.5,45,47.5,-52.5,47.5,85,90,97.5,97.5,222.5,,,,SBD,Raw,F,Submasters 35-39,Yes
1,Amrit-Sadhana Boyd,OR,67.5,63.2,,35,52.5,57.5,62.5,62.5,32.5,35,40,40,75,80,85,85,187.5,,,,SBD,Raw,F,Submasters 35-39,Yes
1,Heather Campbell,OR,60,59.6,,51,82.5,87.5,95,95,60,65,-67.5,65,125,132.5,140,140,300,,,,SBD,Raw,F,Masters 50-54,Yes
1,Jessica Garver,OR,67.5,66,,44,82.5,87.5,92.5,92.5,47.5,50,55,55,87.5,92.5,97.5,97.5,245,,,,SBD,Raw,F,Masters 40-44,Yes
1,Yuki Hasegawa,OR,67.5,64.4,,48,75,80,87.5,87.5,60,65,-70,65,105,110,117.5,117.5,270,,,,SBD,Raw,F,Masters 45-49,Yes
1,Jennifer Darling,OR,75,70.6,,47,87.5,92.5,97.5,97.5,-45,47.5,52.5,52.5,115,122.5,127.5,127.5,277.5,,,,SBD,Raw,F,Masters 45-49,Yes
1,Ramiro Cazares-Orozco,OR,110,108.6,,22,210,225,235,235,145,155,160,160,222.5,237.5,247.5,247.5,642.5,,167.5,,SBD,Raw,M,Juniors 20-23,Yes
1,Drew Coffey #1,OR,56,55.2,,25,140,-150,160,160,80,85,90,90,167.5,182.5,-190,182.5,432.5,,,,SBD,Raw,M,Open,Yes
1,Adam Holmes #3,CA,75,74.2,,28,125,132.5,150,150,105,112.5,120,120,155,165,180,180,450,,,,SBD,Raw,M,Open,Yes
1,Nick Tiller,OR,82.5,81.6,,35,170,182.5,-187.5,182.5,105,112.5,-120,112.5,175,190,200,200,495,,,,SBD,Raw,M,Open,Yes
1,Ryan Gulstrom,OR,90,88,,24,195,205,215,215,135,145,150,150,205,220,235,235,600,,,,SBD,Raw,M,Open,Yes
2,Nikhil Karulkar,WA,90,89.4,,35,200,212.5,227.5,227.5,127.5,132.5,140.5,140.5,200,210,220,220,588,,,,SBD,Raw,M,Open,Yes
3,Nick Dunn #5,OR,90,88.4,,35,172.5,182.5,190,190,110,117.5,122.5,122.5,175,187.5,200,200,512.5,,,,SBD,Raw,M,Open,Yes
4,Tony Thomas,OR,90,89.6,,27,122.5,135,140,140,-87.5,87.5,-95,87.5,165,175,182.5,182.5,410,,,,SBD,Raw,M,Open,Yes
1,Ramiro Cazares-Orozco,OR,110,108.6,,22,210,225,235,235,145,155,160,160,222.5,237.5,247.5,247.5,642.5,,167.5,,SBD,Raw,M,Open,Yes
2,Jacob Lee,OR,110,109.4,,24,195,210,227.5,227.5,152.5,165,172.5,172.5,-200,215,240,240,640,,,,SBD,Raw,M,Open,Yes
3,Joseph Liberman,OR,110,106.8,,34,162.5,172.5,182.5,182.5,115,122.5,130,130,202.5,217.5,-227.5,217.5,530,,,,SBD,Raw,M,Open,Yes
4,Dustin Brown,OR,110,102.6,,32,172.5,180,205,205,120,125,-140,125,175,185,195,195,525,,,,SBD,Raw,M,Open,Yes
1,Brian Cain,OR,125,123.8,,32,205,217.5,227.5,227.5,150,-157.5,157.5,157.5,172.5,182.5,195,195,580,,,,SBD,Raw,M,Open,Yes
1,Sergio Olmos Zaragoza,OR,140+,153.2,,26,175,185,-202.5,185,125,135,142.5,142.5,195,215,232.5,232.5,560,,,,SBD,Raw,M,Open,Yes
1,Nick Tiller,OR,82.5,81.6,,35,170,182.5,-187.5,182.5,105,112.5,-120,112.5,175,190,200,200,495,,,,SBD,Raw,M,Submasters 35-39,Yes
1,Nikhil Karulkar,WA,90,89.4,,35,200,212.5,227.5,227.5,127.5,132.5,140.5,140.5,200,210,220,220,588,,,,SBD,Raw,M,Submasters 35-39,Yes
2,Nick Dunn #5,OR,90,88.4,,35,172.5,182.5,190,190,110,117.5,122.5,122.5,175,187.5,200,200,512.5,,,,SBD,Raw,M,Submasters 35-39,Yes
1,Thomas Trotter,OR,90,87.5,,72,65,67.5,72.5,72.5,55,57.5,62.5,62.5,100,107.5,112.5,112.5,247.5,75,,117.5,SBD,Raw,M,Masters 70-74,Yes
1,Luna Bruno,OR,67.5,66,,31,,,,,82.5,87.5,-92.5,87.5,,,,,87.5,,,,B,Raw,F,Open,Yes
1,Paulene Do,OR,52,51.8,,32,,,,,,,,,115,120,127.5,127.5,127.5,,,,D,Raw,F,Open,Yes
